…
### Regression with a categorical IV (the t-test)

Run the following code chunk and compare the results to the t test conducted earlier.


```r
cchic %>%
  mutate(sex = factor(sex))
```

```{.output}
# A tibble: 5,000 × 35
   lactate_abg ph_abg hco3_abg temp_c temp_nc  urea creatinine sodium     k
         <dbl>  <dbl>    <dbl>  <dbl>   <dbl> <dbl>      <dbl>  <dbl> <dbl>
 1         1.2   7.44     28     36.9    37.1   3           80    135   4.2
 2         1.8   7.3      20.2   36.6    36.4   5.8         93    140   4.4
 3         1.4   7.48     24.6   37.2    36.2   4.5         75    140   3.8
 4         1.5   7.33     22.3   35.4    35.8  13.7        173    136   5  
 5         0.7   7.21     20     35.9    37.1   7.9        186    140   4.9
 6         2.6   7.5      25.3   36.1    35.6   8.9         81    138   4.2
 7         3     7.29     19.5   35.6    38.3  12.5         55    138   5  
 8         1.2   7.4      23.1   35.9    36.1   9.4        251    138   5.8
 9         1.6   7.36     24     35.9    36.6  12.9        390    134   6.5
10         1.4   7.43     22     36.6    37.3   5.1         56    139   4.6
# ℹ 4,990 more rows
# ℹ 26 more variables: hb <dbl>, wbc <dbl>, neutrophil <dbl>, platelets <dbl>,
#   crp <dbl>, chemo <dbl>, chronic_rrt <dbl>, metastatic <dbl>, radiotx <dbl>,
#   apache <dbl>, medical <dbl>, system <dbl>, height <dbl>, weight <dbl>,
#   elective_surgical <dbl>, arrival_dttm <dttm>, discharge_dttm <dttm>,
#   dob <date>, vital_status <chr>, sex <fct>, nhs_number <dbl>,
#   age_years <dbl>, los <dbl>, bmi <dbl>, gender <chr>, …
```
…
