UCL ClinicianCoders - R for Reproducible Scientific Analysis: All in One View
…
Regression with a categorical IV (the t-test)

Run the following code chunk and compare the results to the t test
conducted earlier.

R

gapminder %>%
  mutate(european = factor(european))

OUTPUT

# A tibble: 1,704 × 8
   country     continent  year lifeExp      pop gdpPercap european gdpGroup
   <fct>       <fct>     <int>   <dbl>    <int>     <dbl> <fct>    <fct>
 1 Afghanistan Asia       1952    28.8  8425333      779. FALSE    1
 2 Afghanistan Asia       1957    30.3  9240934      821. FALSE    1
 3 Afghanistan Asia       1962    32.0 10267083      853. FALSE    1
 4 Afghanistan Asia       1967    34.0 11537966      836. FALSE    1
 5 Afghanistan Asia       1972    36.1 13079460      740. FALSE    1
 6 Afghanistan Asia       1977    38.4 14880372      786. FALSE    1
 7 Afghanistan Asia       1982    39.9 12881816      978. FALSE    1
 8 Afghanistan Asia       1987    40.8 13867957      852. FALSE    1
 9 Afghanistan Asia       1992    41.7 16317921      649. FALSE    1
10 Afghanistan Asia       1997    41.8 22227415      635. FALSE    1
# ℹ 1,694 more rows
…
